…
    ## `summarise()` has grouped output by 'Country'. You can override using the
    ## `.groups` argument.

``` r
  NPI_May.recode.g <- NPI_May.recode.g
  

NPI_May.recode.g
```

    ## # A tibble: 2,372 × 3
    ## # Groups:   Country [58]
    ##    Country Date       Measure_L2_recode          
    ##    <chr>   <chr>      <chr>                      
    ##  1 Albania 2020-02-25 33-36-12-2                 
    ##  2 Albania 2020-03-08 43-22-28                   
    ##  3 Albania 2020-03-09 43                         
    ##  4 Albania 2020-03-10 29-22-15-39-47             
    ##  5 Albania 2020-03-11 29                         
    ##  6 Albania 2020-03-12 29                         
    ##  7 Albania 2020-03-13 46-24                      
    ##  8 Albania 2020-03-14 43-33                      
    ##  9 Albania 2020-03-15 29-24                      
    ## 10 Albania 2020-03-16 16-43-30-9-46-4-44-15-36-39
    ## # … with 2,362 more rows
…
Numbers_Handling <-  function(nums_str) {
  extracted_nums <-  regmatches(nums_str, gregexpr("[[:digit:]]+",nums_str))
  ordered_number <- paste(sort((as.numeric(unlist(extracted_nums)))), collapse="-")
  return(ordered_number)
}
```

``` r
NPI_May.recode.g <- NPI_May.recode.g %>%
    mutate(Measure_L2_recode = sapply(Measure_L2_recode, Numbers_Handling))
NPI_May.recode.g
```

    ## # A tibble: 2,372 × 3
    ## # Groups:   Country [58]
    ##    Country Date       Measure_L2_recode          
    ##    <chr>   <chr>      <chr>                      
    ##  1 Albania 2020-02-25 2-12-33-36                 
    ##  2 Albania 2020-03-08 22-28-43                   
    ##  3 Albania 2020-03-09 43                         
    ##  4 Albania 2020-03-10 15-22-29-39-47             
    ##  5 Albania 2020-03-11 29                         
    ##  6 Albania 2020-03-12 29                         
    ##  7 Albania 2020-03-13 24-46                      
    ##  8 Albania 2020-03-14 33-43                      
    ##  9 Albania 2020-03-15 24-29                      
    ## 10 Albania 2020-03-16 4-9-15-16-30-36-39-43-44-46
    ## # … with 2,362 more rows

``` r
## pivot_wider Country >> column
NPI_May.wider_with_na <- NPI_May.recode.g %>% pivot_wider(names_from ="Country",
                                         values_from="Measure_L2_recode")

NPI_May.wider_with_na
```

    ## # A tibble: 150 × 59
    ##    Date     Albania Austria Belgium `Bosnia and He…` Brazil Canada China Croatia
    ##    <chr>    <chr>   <chr>   <chr>   <chr>            <chr>  <chr>  <chr> <chr>  
    ##  1 2020-02… 2-12-3… <NA>    <NA>    <NA>             <NA>   <NA>   2-6-… <NA>   
    ##  2 2020-03… 22-28-… <NA>    <NA>    <NA>             <NA>   <NA>   <NA>  <NA>   
    ##  3 2020-03… 43      <NA>    <NA>    <NA>             <NA>   <NA>   <NA>  6-28   
    ##  4 2020-03… 15-22-… 3-25-2… 22-32-… <NA>             <NA>   25     45    <NA>   
    ##  5 2020-03… 29      33      <NA>    <NA>             <NA>   36     <NA>  <NA>   
    ##  6 2020-03… 29      <NA>    <NA>    22-29            48     22-28… <NA>  28     
    ##  7 2020-03… 24-46   34-38   22-29-… <NA>             <NA>   4-6-46 <NA>  22     
    ##  8 2020-03… 33-43   33      <NA>    <NA>             <NA>   25-34  <NA>  <NA>   
    ##  9 2020-03… 24-29   <NA>    <NA>    6-33-44-46       <NA>   16     <NA>  <NA>   
    ## 10 2020-03… 4-9-15… 18-22-… 14-33   35               <NA>   22-25… <NA>  <NA>   
    ## # … with 140 more rows, and 50 more variables: `Czech Republic` <chr>,
    ## #   Denmark <chr>, `Diamond Princess` <chr>, Ecuador <chr>, Egypt <chr>,
    ## #   `El Salvador` <chr>, Estonia <chr>, Finland <chr>, France <chr>,
    ## #   Germany <chr>, Ghana <chr>, Greece <chr>, Honduras <chr>, Hungary <chr>,
    ## #   Iceland <chr>, India <chr>, Indonesia <chr>, Italy <chr>, Japan <chr>,
    ## #   Kazakhstan <chr>, Kosovo <chr>, Kuwait <chr>, Liechtenstein <chr>,
    ## #   Lithuania <chr>, Malaysia <chr>, Mauritius <chr>, Mexico <chr>, …

``` r
## Replace missing value NA of NPI with 0:   
NPI_May.wider <- mutate_at(NPI_May.wider_with_na, c(2:59), ~replace(., is.na(.), 0))
DF <- NPI_May.wider
```

``` r
DF[sapply(DF, is.character)] <- lapply(DF[sapply(DF, is.character)], 
                                       as.factor)

DF
```

    ## # A tibble: 150 × 59
    ##    Date     Albania Austria Belgium `Bosnia and He…` Brazil Canada China Croatia
    ##    <fct>    <fct>   <fct>   <fct>   <fct>            <fct>  <fct>  <fct> <fct>  
    ##  1 2020-02… 2-12-3… 0       0       0                0      0      2-6-… 0      
    ##  2 2020-03… 22-28-… 0       0       0                0      0      0     0      
    ##  3 2020-03… 43      0       0       0                0      0      0     6-28   
    ##  4 2020-03… 15-22-… 3-25-2… 22-32-… 0                0      25     45    0      
    ##  5 2020-03… 29      33      0       0                0      36     0     0      
    ##  6 2020-03… 29      0       0       22-29            48     22-28… 0     28     
    ##  7 2020-03… 24-46   34-38   22-29-… 0                0      4-6-46 0     22     
    ##  8 2020-03… 33-43   33      0       0                0      25-34  0     0      
    ##  9 2020-03… 24-29   0       0       6-33-44-46       0      16     0     0      
    ## 10 2020-03… 4-9-15… 18-22-… 14-33   35               0      22-25… 0     0      
    ## # … with 140 more rows, and 50 more variables: `Czech Republic` <fct>,
    ## #   Denmark <fct>, `Diamond Princess` <fct>, Ecuador <fct>, Egypt <fct>,
    ## #   `El Salvador` <fct>, Estonia <fct>, Finland <fct>, France <fct>,
    ## #   Germany <fct>, Ghana <fct>, Greece <fct>, Honduras <fct>, Hungary <fct>,
    ## #   Iceland <fct>, India <fct>, Indonesia <fct>, Italy <fct>, Japan <fct>,
    ## #   Kazakhstan <fct>, Kosovo <fct>, Kuwait <fct>, Liechtenstein <fct>,
    ## #   Lithuania <fct>, Malaysia <fct>, Mauritius <fct>, Mexico <fct>, …
…
